\begin{tikzpicture}[fill=white,
                    every node/.style={
                    anchor=center,
                    align=left,
                     text=black
%                     text=red
                     }]
%\renewcommand{\baselinestretch}{0.7}

\node[anchor=south west,inner sep=0] (image) at (0,0) {\includegraphics[viewport={35.1mm 251.2mm 61.7mm 278.1mm},clip,width=\SCImageWidth]{images/pdf/1_2}};
\begin{scope}[x={(image.south east)},y={(image.north west)}]
%\draw[help lines,xstep=.1,ystep=.1] (0,0) grid (1,1);
%\foreach \x in {0,1,...,9} { \node [anchor=north] at (\x/10,0) {0.\x}; \node [anchor=south] at (\x/10,1) {0.\x}; }
%\foreach \y in {0,1,...,9} { \node [anchor=east] at (0,\y/10) {0.\y}; \node [anchor=west] at (1,\y/10) {0.\y}; }

\newcommand{\SCCenter}{(\xl/2 + \xr/2, \yb/2 + \yt/2)}

\pgfmathsetmacro{\xl}{0.01737}
\pgfmathsetmacro{\xr}{0.13400}
\pgfmathsetmacro{\yt}{0.72414}
\pgfmathsetmacro{\yb}{0.59606}
%\draw[red, very thin] (\xl,\yb) rectangle (\xr,\yt);
\fill (\xl,\yb) rectangle (\xr,\yt) (\xr, \yt) ++(\SCLblTght,\SCLblTght) node [anchor=north east] {$O$}; % это не просто полюс СК, а имя шарнира

\pgfmathsetmacro{\xl}{0.89082}
\pgfmathsetmacro{\xr}{0.99007}
\pgfmathsetmacro{\yt}{0.85468}
\pgfmathsetmacro{\yb}{0.75123}
%\draw[red, very thin] (\xl,\yb) rectangle (\xr,\yt);
\fill (\xl,\yb) rectangle (\xr,\yt) (\xl, \yb) ++(-\SCLblTght,-\SCLblTght) node [anchor=south west] {\SCFAX{}};

\pgfmathsetmacro{\xl}{0.53350}
\pgfmathsetmacro{\xr}{0.62779}
\pgfmathsetmacro{\yt}{0.63547}
\pgfmathsetmacro{\yb}{0.45567}
%\draw[red, very thin] (\xl,\yb) rectangle (\xr,\yt);
\fill (\xl,\yb) rectangle (\xr,\yt) (\xl, \yb) ++(-\SCLblTght,-\SCLblTght) node [anchor=south west] {\scvec{l}};

\pgfmathsetmacro{\xl}{0.03226}
\pgfmathsetmacro{\xr}{0.12903}
\pgfmathsetmacro{\yt}{0.17980}
\pgfmathsetmacro{\yb}{0.03941}
%\draw[red, very thin] (\xl,\yb) rectangle (\xr,\yt);
\fill (\xl,\yb) rectangle (\xr,\yt) (\xr, \yb) ++(\SCLblTght,-\SCLblTght) node [anchor=south east] {\SCFAY{}};

\pgfmathsetmacro{\xl}{0.80020}
\pgfmathsetmacro{\xr}{0.92883}
\pgfmathsetmacro{\yt}{0.30463}
\pgfmathsetmacro{\yb}{0.19271}
%\draw[red, very thin] (\xl,\yb) rectangle (\xr,\yt);
\fill (\xl,\yb) rectangle (\xr,\yt) (\xl, \yt/2 + \yb/2) ++(-\SCLblTght,0pt) node [anchor=west] {\scmath{A}};

\pgfmathsetmacro{\xl}{0.41112}
\pgfmathsetmacro{\xr}{0.53658}
\pgfmathsetmacro{\yt}{0.18325}
\pgfmathsetmacro{\yb}{0.05241}
%\draw[red, very thin] (\xl,\yb) rectangle (\xr,\yt);
\fill (\xl,\yb) rectangle (\xr,\yt) (\xl, \yt/2 + \yb/2) ++(-\SCLblTght,0pt) node [anchor=west] {\scmath{A}};

\end{scope}
\end{tikzpicture}
