\begin{tikzpicture}[fill=white,
                    every node/.style={
                    anchor=center,
                    align=left,
                     text=black
%                     text=red
                     }]
%\renewcommand{\baselinestretch}{0.7}

% ШРВ: нужно перерисовать рисунок.
% Координатная линия (q_j) – это линия, проходящая через данную точку, для которой только одна координата q_j варьируется.
% Тогда для этого рисунка если хотим провести координатные линии через точку M, то (q_1) – это дуга BMC и координатную ось [phi] тоже стоит в точку M поднять (чтобы получилась прямоугольная система координат из координатных осей [rho],[phi],[y]). Именно так в тексте описано (исходный рисунок был с опечаткой).

\node[anchor=south west,inner sep=0] (image) at (0,0) {\includegraphics[viewport={46.9mm 226.0mm 122.6mm 276.5mm},clip,width=0.5\textwidth]{images/pdf/2_5-old}};
\begin{scope}[x={(image.south east)},y={(image.north west)}]
%\draw[help lines,xstep=.1,ystep=.1] (0,0) grid (1,1);
%\foreach \x in {0,1,...,9} { \node [anchor=north] at (\x/10,0) {0.\x}; \node [anchor=south] at (\x/10,1) {0.\x}; }
%\foreach \y in {0,1,...,9} { \node [anchor=east] at (0,\y/10) {0.\y}; \node [anchor=west] at (1,\y/10) {0.\y}; }

\newcommand{\SCCenter}{(\xl/2 + \xr/2, \yb/2 + \yt/2)}

\pgfmathsetmacro{\xl}{0.11945}
\pgfmathsetmacro{\xr}{0.19115}
\pgfmathsetmacro{\yt}{0.96384}
\pgfmathsetmacro{\yb}{0.87092}
%\draw[red, very thin] (\xl,\yb) rectangle (\xr,\yt);
\fill (\xl,\yb) rectangle (\xr,\yt) (\xr, \yb) ++(\SCLblTght,-\SCLblTght) node [anchor=south east] {\SCFAYg{}};

\pgfmathsetmacro{\xl}{0.41847}
\pgfmathsetmacro{\xr}{0.50503}
\pgfmathsetmacro{\yt}{0.99395}
\pgfmathsetmacro{\yb}{0.91018}
%\draw[red, very thin] (\xl,\yb) rectangle (\xr,\yt);
\fill (\xl,\yb) rectangle (\xr,\yt) (\xl, \yb) ++(-\SCLblTght,-\SCLblTght) node [anchor=south west] {\scca{\scy{}}};

\pgfmathsetmacro{\xl}{0.12645}
\pgfmathsetmacro{\xr}{0.18503}
\pgfmathsetmacro{\yt}{0.76491}
\pgfmathsetmacro{\yb}{0.70078}
%\draw[red, very thin] (\xl,\yb) rectangle (\xr,\yt);
\fill (\xl,\yb) rectangle (\xr,\yt) (\xr, \yt/2 + \yb/2) ++(\SCLblTght,0pt) node [anchor=east] {\scmath{A}};

\pgfmathsetmacro{\xl}{0.24011}
\pgfmathsetmacro{\xr}{0.39486}
\pgfmathsetmacro{\yt}{0.78978}
\pgfmathsetmacro{\yb}{0.69162}
%\draw[red, very thin] (\xl,\yb) rectangle (\xr,\yt);
\fill (\xl,\yb) rectangle (\xr,\yt) (\xl, \yb) ++(-\SCLblTght,-\SCLblTght) node [anchor=south west] {$\rho$, \scclq{2}};

\pgfmathsetmacro{\xl}{0.42022}
\pgfmathsetmacro{\xr}{0.48230}
\pgfmathsetmacro{\yt}{0.67722}
\pgfmathsetmacro{\yb}{0.60916}
%\draw[red, very thin] (\xl,\yb) rectangle (\xr,\yt);
\fill (\xl,\yb) rectangle (\xr,\yt) (\xl, \yb) ++(-\SCLblTght,-\SCLblTght) node [anchor=south west] {\scmath{M}};

\pgfmathsetmacro{\xl}{0.58459}
\pgfmathsetmacro{\xr}{0.64230}
\pgfmathsetmacro{\yt}{0.79239}
\pgfmathsetmacro{\yb}{0.72957}
%\draw[red, very thin] (\xl,\yb) rectangle (\xr,\yt);
\fill (\xl,\yb) rectangle (\xr,\yt) (\xl, \yb) ++(-\SCLblTght,-\SCLblTght) node [anchor=south west] {\scmath{C}};

\pgfmathsetmacro{\xl}{0.08011}
\pgfmathsetmacro{\xr}{0.13956}
\pgfmathsetmacro{\yt}{0.58560}
\pgfmathsetmacro{\yb}{0.52147}
%\draw[red, very thin] (\xl,\yb) rectangle (\xr,\yt);
\fill (\xl,\yb) rectangle (\xr,\yt) (\xr, \yt) ++(\SCLblTght,\SCLblTght) node [anchor=north east] {\scmath{B}};

\pgfmathsetmacro{\xl}{0.19989}
\pgfmathsetmacro{\xr}{0.24973}
\pgfmathsetmacro{\yt}{0.41808}
\pgfmathsetmacro{\yb}{0.34348}
%\draw[red, very thin] (\xl,\yb) rectangle (\xr,\yt);
\fill (\xl,\yb) rectangle (\xr,\yt) (\xl, \yb) ++(-\SCLblTght,-\SCLblTght) node [anchor=south west] {\scO{}};

\pgfmathsetmacro{\xl}{0.41672}
\pgfmathsetmacro{\xr}{0.51377}
\pgfmathsetmacro{\yt}{0.45080}
\pgfmathsetmacro{\yb}{0.35656}
%\draw[red, very thin] (\xl,\yb) rectangle (\xr,\yt);
\fill (\xl,\yb) rectangle (\xr,\yt);

\pgfmathsetmacro{\xl}{0.35902}
\pgfmathsetmacro{\xr}{0.40098}
\pgfmathsetmacro{\yt}{0.42855}
\pgfmathsetmacro{\yb}{0.34871}
%\draw[red, very thin] (\xl,\yb) rectangle (\xr,\yt);
\fill (\xl,\yb) rectangle (\xr,\yt) (\xl, \yb) ++(-\SCLblTght,-\SCLblTght) node [anchor=south west, inner sep=0, minimum size=0.1em, fill=white] {\scy{}, \scclq{3}};

\pgfmathsetmacro{\xl}{0.65628}
\pgfmathsetmacro{\xr}{0.72798}
\pgfmathsetmacro{\yt}{0.51100}
\pgfmathsetmacro{\yb}{0.41939}
%\draw[red, very thin] (\xl,\yb) rectangle (\xr,\yt);
\fill (\xl,\yb) rectangle (\xr,\yt) (\xl, \yb) ++(-\SCLblTght,-\SCLblTght) node [anchor=south west] {\scca{\rho}};

\pgfmathsetmacro{\xl}{0.78568}
\pgfmathsetmacro{\xr}{0.84689}
\pgfmathsetmacro{\yt}{0.40237}
\pgfmathsetmacro{\yb}{0.31992}
%\draw[red, very thin] (\xl,\yb) rectangle (\xr,\yt);
\fill (\xl,\yb) rectangle (\xr,\yt) (\xl, \yb) ++(-\SCLblTght,-\SCLblTght) node [anchor=south west] {\SCFAXg{}};

\pgfmathsetmacro{\xl}{0.00404}
\pgfmathsetmacro{\xr}{0.07311}
\pgfmathsetmacro{\yt}{0.08826}
\pgfmathsetmacro{\yb}{0.00712}
%\draw[red, very thin] (\xl,\yb) rectangle (\xr,\yt);
\fill (\xl,\yb) rectangle (\xr,\yt) (\xr, \yb) ++(\SCLblTght,-\SCLblTght) node [anchor=south east] {\SCFAZg{}};

\pgfmathsetmacro{\xl}{0.20339}
\pgfmathsetmacro{\xr}{0.34240}
\pgfmathsetmacro{\yt}{0.15370}
\pgfmathsetmacro{\yb}{0.04900}
%\draw[red, very thin] (\xl,\yb) rectangle (\xr,\yt);
\fill (\xl,\yb) rectangle (\xr,\yt) (\xl/2 + \xr/2, \yt) ++(0pt,\SCLblTght) node [anchor=north] {$\phi$, \scclq{1}};

\pgfmathsetmacro{\xl}{0.40273}
\pgfmathsetmacro{\xr}{0.48579}
\pgfmathsetmacro{\yt}{0.17464}
\pgfmathsetmacro{\yb}{0.08041}
%\draw[red, very thin] (\xl,\yb) rectangle (\xr,\yt);
\fill (\xl,\yb) rectangle (\xr,\yt) (\xl, \yt) ++(-\SCLblTght,\SCLblTght) node [anchor=north west] {$M_1$};

\pgfmathsetmacro{\xl}{0.91596}
\pgfmathsetmacro{\xr}{0.98328}
\pgfmathsetmacro{\yt}{0.31207}
\pgfmathsetmacro{\yb}{0.20736}
%\draw[red, very thin] (\xl,\yb) rectangle (\xr,\yt);
\fill (\xl,\yb) rectangle (\xr,\yt) (\xl/2 + \xr/2, \yt) ++(0pt,\SCLblTght) node [anchor=north] {\scca{\phi}};

\end{scope}
\end{tikzpicture}
