\begin{tikzpicture}[fill=white,
                    every node/.style={
                    anchor=center,
                    align=left,
                     text=black
%                     text=red
                     }]
%\renewcommand{\baselinestretch}{0.7}

\node[anchor=south west,inner sep=0] (image) at (0,0) {\includegraphics[viewport={59.5mm 174.1mm 126.8mm 250.8mm},clip,width=0.4\textwidth]{images/pdf/3-1_20}};

\begin{scope}[x={(image.south east)},y={(image.north west)}]
%\draw[help lines,xstep=.1,ystep=.1] (0,0) grid (1,1);
%\foreach \x in {0,1,...,9} { \node [anchor=north] at (\x/10,0) {0.\x}; \node [anchor=south] at (\x/10,1) {0.\x}; }
%\foreach \y in {0,1,...,9} { \node [anchor=east] at (0,\y/10) {0.\y}; \node [anchor=west] at (1,\y/10) {0.\y}; }

\newcommand{\SCCenter}{(\xl/2 + \xr/2, \yb/2 + \yt/2)}

% TODO: в оригинале была СК xgygzg

\pgfmathsetmacro{\xl}{0.69057}
\pgfmathsetmacro{\xr}{0.73870}
\pgfmathsetmacro{\yt}{0.14310}
\pgfmathsetmacro{\yb}{0.11552}
%\draw[red, very thin] (\xl,\yb) rectangle (\xr,\yt);
\fill (\xl,\yb)
%\rectangle (\xr,\yt)
(\xl/2 + \xr/2, \yt) ++(0pt,\SCLblTght) node [anchor=north] {\SCFAX{}};

\pgfmathsetmacro{\xl}{0.19843}
\pgfmathsetmacro{\xr}{0.23281}
\pgfmathsetmacro{\yt}{0.99483}
\pgfmathsetmacro{\yb}{0.94052}
%\draw[red, very thin] (\xl,\yb) rectangle (\xr,\yt);
\fill (\xl,\yb)
%rectangle (\xr,\yt)
(\xr, \yt/2 + \yb/2) ++(\SCLblTght+2pt,0pt) node [anchor=east] {\SCFAY{}};

\pgfmathsetmacro{\xl}{0.00000}
\pgfmathsetmacro{\xr}{0.02358}
\pgfmathsetmacro{\yt}{0.07586}
\pgfmathsetmacro{\yb}{0.03276}
%\draw[red, very thin] (\xl,\yb) rectangle (\xr,\yt);
\fill (\xl,\yb)
%rectangle (\xr,\yt)
(\xr, \yb) ++(\SCLblTght,-\SCLblTght) node [anchor=south east] {\SCFAZ{}};

\pgfmathsetmacro{\xl}{0.35560}
\pgfmathsetmacro{\xr}{0.38998}
\pgfmathsetmacro{\yt}{0.39741}
\pgfmathsetmacro{\yb}{0.35431}
%\draw[red, very thin] (\xl,\yb) rectangle (\xr,\yt);
\fill (\xr,\yb)
%rectangle (\xr,\yt)
(\xr, \yb) ++(-\SCLblTght+4pt,\SCLblTght+5pt) node [anchor=north west] {\scrv{\scCoM{}}};

\pgfmathsetmacro{\xl}{0.46267}
\pgfmathsetmacro{\xr}{0.51572}
\pgfmathsetmacro{\yt}{0.61293}
\pgfmathsetmacro{\yb}{0.54224}
%\draw[red, very thin] (\xl,\yb) rectangle (\xr,\yt);
\fill (\xl,\yb)
%rectangle (\xr,\yt)
(\xr, \yb) ++(\SCLblTght,-\SCLblTght) node [anchor=south east] {\scCoM{}};

\pgfmathsetmacro{\xl}{0.18271}
\pgfmathsetmacro{\xr}{0.23477}
\pgfmathsetmacro{\yt}{0.53103}
\pgfmathsetmacro{\yb}{0.49052}
%\draw[red, very thin] (\xl,\yb) rectangle (\xr,\yt);
\fill (\xl,\yb)
%rectangle (\xr,\yt)
(\xr, \yt/2 + \yb/2) ++(\SCLblTght,0pt) node [anchor=east] {\scwv{}};

\pgfmathsetmacro{\xl}{0.19155}
\pgfmathsetmacro{\xr}{0.23870}
\pgfmathsetmacro{\yt}{0.64569}
\pgfmathsetmacro{\yb}{0.59655}
%\draw[red, very thin] (\xl,\yb) rectangle (\xr,\yt);
\fill (\xl,\yb)
%rectangle (\xr,\yt)
(\xr, \yt/2 + \yb/2) ++(\SCLblTght,0pt) node [anchor=east] {\scvec{\epsilon}};

\end{scope}
\end{tikzpicture}
