\begin{tikzpicture}[fill=white,
                    every node/.style={
                    anchor=center,
                    align=left,
                     text=black
%                     text=red
                     }]
%\renewcommand{\baselinestretch}{0.7}

\node[anchor=south west,inner sep=0] (image) at (0,0) {\includegraphics[viewport={54.7mm 231.1mm 112.9mm 270.2mm},clip,width=0.5\textwidth]{images/pdf/3_5}};
\begin{scope}[x={(image.south east)},y={(image.north west)}]
%\draw[help lines,xstep=.1,ystep=.1] (0,0) grid (1,1);
%\foreach \x in {0,1,...,9} { \node [anchor=north] at (\x/10,0) {0.\x}; \node [anchor=south] at (\x/10,1) {0.\x}; }
%\foreach \y in {0,1,...,9} { \node [anchor=east] at (0,\y/10) {0.\y}; \node [anchor=west] at (1,\y/10) {0.\y}; }

\newcommand{\SCCenter}{(\xl/2 + \xr/2, \yb/2 + \yt/2)}

\pgfmathsetmacro{\xl}{0.12056}
\pgfmathsetmacro{\xr}{0.16944}
\pgfmathsetmacro{\yt}{0.97851}
\pgfmathsetmacro{\yb}{0.86612}
%\draw[red, very thin] (\xl,\yb) rectangle (\xr,\yt);
\fill (\xl,\yb) rectangle (\xr,\yt) (\xr, \yt/2 + \yb/2) ++(\SCLblTght,0pt) node [anchor=east] {$l$}; % NB: ТАН добавила вектор, но это неверно, т.к. это имя оси

\pgfmathsetmacro{\xl}{0.51611}
\pgfmathsetmacro{\xr}{0.66278}
\pgfmathsetmacro{\yt}{1.00000}
\pgfmathsetmacro{\yb}{0.92231}
%\draw[red, very thin] (\xl,\yb) rectangle (\xr,\yt);
\fill (\xl,\yb) rectangle (\xr,\yt) (\xl, \yb) ++(-\SCLblTght,-\SCLblTght) node [anchor=south west] {Тело};

\pgfmathsetmacro{\xl}{0.81389}
\pgfmathsetmacro{\xr}{0.99611}
\pgfmathsetmacro{\yt}{0.10248}
\pgfmathsetmacro{\yb}{0.00661}
%\draw[red, very thin] (\xl,\yb) rectangle (\xr,\yt);
\fill (\xl,\yb) rectangle (\xr,\yt) (\xl, \yt) ++(-\SCLblTght,\SCLblTght) node [anchor=north west] {Точка};

\pgfmathsetmacro{\xl}{0.04820}
\pgfmathsetmacro{\xr}{0.10367}
\pgfmathsetmacro{\yt}{0.67253}
\pgfmathsetmacro{\yb}{0.60060}
%\draw[red, very thin] (\xl,\yb) rectangle (\xr,\yt);
\fill (\xl,\yb) rectangle (\xr,\yt) (\xl, \yt) ++(0, -3pt) node [anchor=north west, inner sep=0, minimum size=0.1em, fill=white] {\scm{}};

\pgfmathsetmacro{\xl}{0.39807}
\pgfmathsetmacro{\xr}{0.45211}
\pgfmathsetmacro{\yt}{0.27055}
\pgfmathsetmacro{\yb}{0.12668}
%\draw[red, very thin] (\xl,\yb) rectangle (\xr,\yt);
\fill (\xl,\yb) rectangle (\xr,\yt) (\xl/2 + \xr/2, \yt) ++(0, -3pt) node [anchor=north, inner sep=0, minimum size=0.1em, fill=white] {\sci{l}};

\pgfmathsetmacro{\xl}{0.68251}
\pgfmathsetmacro{\xr}{0.73656}
\pgfmathsetmacro{\yt}{0.40383}
\pgfmathsetmacro{\yb}{0.34036}
%\draw[red, very thin] (\xl,\yb) rectangle (\xr,\yt);
\fill (\xl,\yb) rectangle (\xr,\yt) \SCCenter ++(0pt,0pt) node [anchor=center] {\scm{}};

\pgfmathsetmacro{\xl}{0.18774}
\pgfmathsetmacro{\xr}{0.20012}
\pgfmathsetmacro{\yt}{0.36548}
\pgfmathsetmacro{\yb}{0.34165}
%\draw[red, very thin] (\xl,\yb) rectangle (\xr,\yt);
\fill (\xl,\yb) rectangle (\xr,\yt);

\pgfmathsetmacro{\xl}{0.65814}
\pgfmathsetmacro{\xr}{0.66906}
\pgfmathsetmacro{\yt}{0.36548}
\pgfmathsetmacro{\yb}{0.33407}
%\draw[red, very thin] (\xl,\yb) rectangle (\xr,\yt);
\fill (\xl,\yb) rectangle (\xr,\yt);

\end{scope}
\end{tikzpicture}
