\begin{tikzpicture}[fill=white,
                    every node/.style={
                    anchor=center,
                    align=left,
                     text=black
%                     text=red
                     }]
%\renewcommand{\baselinestretch}{0.7}

\node[anchor=south west,inner sep=0] (image) at (0,0) {\includegraphics[viewport={49.6mm 231.4mm 92.2mm 264.8mm},clip,width=0.3\textwidth]{images/pdf/3_8+17}};
\begin{scope}[x={(image.south east)},y={(image.north west)}]
%\draw[help lines,xstep=.1,ystep=.1] (0,0) grid (1,1);
%\foreach \x in {0,1,...,9} { \node [anchor=north] at (\x/10,0) {0.\x}; \node [anchor=south] at (\x/10,1) {0.\x}; }
%\foreach \y in {0,1,...,9} { \node [anchor=east] at (0,\y/10) {0.\y}; \node [anchor=west] at (1,\y/10) {0.\y}; }

\newcommand{\SCCenter}{(\xl/2 + \xr/2, \yb/2 + \yt/2)}

\pgfmathsetmacro{\xl}{0.82230}
\pgfmathsetmacro{\xr}{0.87079}
\pgfmathsetmacro{\yt}{0.61467}
\pgfmathsetmacro{\yb}{0.52324}
%\draw[red, very thin] (\xl,\yb) rectangle (\xr,\yt);
\fill (\xl,\yb) rectangle (\xr,\yt) (\xl/2 + \xr/2, \yb) ++(0pt,-\SCLblTght) node [anchor=south] {\SCFAX{}};

\pgfmathsetmacro{\xl}{0.06982}
\pgfmathsetmacro{\xr}{0.14158}
\pgfmathsetmacro{\yt}{0.82965}
\pgfmathsetmacro{\yb}{0.72340}
%\draw[red, very thin] (\xl,\yb) rectangle (\xr,\yt);
\fill (\xl,\yb) rectangle (\xr,\yt) (\xr, \yt) ++(\SCLblTght,\SCLblTght) node [anchor=north east] {\SCFAY{}};

\pgfmathsetmacro{\xl}{0.25794}
\pgfmathsetmacro{\xr}{0.31418}
\pgfmathsetmacro{\yt}{0.10317}
\pgfmathsetmacro{\yb}{0.02409}
%\draw[red, very thin] (\xl,\yb) rectangle (\xr,\yt);
\fill (\xl,\yb) rectangle (\xr,\yt) (\xl, \yt) ++(-\SCLblTght,\SCLblTght) node [anchor=north west] {\SCFAZ{}};

\pgfmathsetmacro{\xl}{0.88048}
\pgfmathsetmacro{\xr}{0.99491}
\pgfmathsetmacro{\yt}{0.34286}
\pgfmathsetmacro{\yb}{0.18471}
%\draw[red, very thin] (\xl,\yb) rectangle (\xr,\yt);
\fill (\xl,\yb) rectangle (\xr,\yt) (\xl, \yt) ++(-\SCLblTght,\SCLblTght) node [anchor=north west] {\SCFAXg{}};

\pgfmathsetmacro{\xl}{0.40921}
\pgfmathsetmacro{\xr}{0.54109}
\pgfmathsetmacro{\yt}{0.97544}
\pgfmathsetmacro{\yb}{0.84942}
%\draw[red, very thin] (\xl,\yb) rectangle (\xr,\yt);
\fill (\xl,\yb) rectangle (\xr,\yt) (\xl, \yt/2 + \yb/2) ++(-\SCLblTght,0pt) node [anchor=west] {\SCFAYg{}};

\pgfmathsetmacro{\xl}{0.00194}
\pgfmathsetmacro{\xr}{0.09891}
\pgfmathsetmacro{\yt}{0.29344}
\pgfmathsetmacro{\yb}{0.16000}
%\draw[red, very thin] (\xl,\yb) rectangle (\xr,\yt);
\fill (\xl,\yb) rectangle (\xr,\yt) (\xr, \yb) ++(\SCLblTght,-\SCLblTght) node [anchor=south east] {\SCFAZg{}};

\end{scope}
\end{tikzpicture}
