\begin{tikzpicture}[fill=white,
                    every node/.style={
                    anchor=center,
                    align=left,
                     text=black
%                     text=red
                     }]
%\renewcommand{\baselinestretch}{0.7}

\node[anchor=south west,inner sep=0] (image) at (0,0) {\includegraphics[viewport={58.1mm 232.3mm 103.2mm 271.2mm},clip,width=\SCImageWidth]{images/pdf/5_3}};
\begin{scope}[x={(image.south east)},y={(image.north west)}]
%\draw[help lines,xstep=.1,ystep=.1] (0,0) grid (1,1);
%\foreach \x in {0,1,...,9} { \node [anchor=north] at (\x/10,0) {0.\x}; \node [anchor=south] at (\x/10,1) {0.\x}; }
%\foreach \y in {0,1,...,9} { \node [anchor=east] at (0,\y/10) {0.\y}; \node [anchor=west] at (1,\y/10) {0.\y}; }

\newcommand{\SCCenter}{(\xl/2 + \xr/2, \yb/2 + \yt/2)}

\pgfmathsetmacro{\xl}{0.93135}
\pgfmathsetmacro{\xr}{0.99186}
\pgfmathsetmacro{\yt}{0.26113}
\pgfmathsetmacro{\yb}{0.16545}
%\draw[red, very thin] (\xl,\yb) rectangle (\xr,\yt);
\fill (\xl,\yb) rectangle (\xr,\yt) (\xl/2 + \xr/2, \yt) ++(0pt,\SCLblTght) node [anchor=north] {\SCFAX{}};

\pgfmathsetmacro{\xl}{0.04928}
\pgfmathsetmacro{\xr}{0.14648}
\pgfmathsetmacro{\yt}{0.97130}
\pgfmathsetmacro{\yb}{0.87987}
%\draw[red, very thin] (\xl,\yb) rectangle (\xr,\yt);
\fill (\xl,\yb) rectangle (\xr,\yt) (\xr, \yt/2 + \yb/2) ++(\SCLblTght,0pt) node [anchor=east] {\SCFAY{}};

\pgfmathsetmacro{\xl}{0.05662}
\pgfmathsetmacro{\xr}{0.10980}
\pgfmathsetmacro{\yt}{0.06551}
\pgfmathsetmacro{\yb}{0.00000}
%\draw[red, very thin] (\xl,\yb) rectangle (\xr,\yt);
\fill (\xl,\yb) rectangle (\xr,\yt) (\xl, \yt/2 + \yb/2) ++(-\SCLblTght,0pt) node [anchor=west] {\SCFAZ{}};

\pgfmathsetmacro{\xl}{0.31152}
\pgfmathsetmacro{\xr}{0.37020}
\pgfmathsetmacro{\yt}{0.83734}
\pgfmathsetmacro{\yb}{0.74591}
%\draw[red, very thin] (\xl,\yb) rectangle (\xr,\yt);
\fill (\xl,\yb) rectangle (\xr,\yt) (\xr, \yb) ++(\SCLblTght,-\SCLblTght) node [anchor=south east] {\scrv{}};

\pgfmathsetmacro{\xl}{0.86350}
\pgfmathsetmacro{\xr}{0.90751}
\pgfmathsetmacro{\yt}{0.77355}
\pgfmathsetmacro{\yb}{0.67575}
%\draw[red, very thin] (\xl,\yb) rectangle (\xr,\yt);
\fill (\xl,\yb) rectangle (\xr,\yt) (\xr, \yb) ++(\SCLblTght,-\SCLblTght) node [anchor=south east] {$l$};

\pgfmathsetmacro{\xl}{0.34819}
\pgfmathsetmacro{\xr}{0.41605}
\pgfmathsetmacro{\yt}{0.68638}
\pgfmathsetmacro{\yb}{0.54392}
%\draw[red, very thin] (\xl,\yb) rectangle (\xr,\yt);
\fill (\xl,\yb) rectangle (\xr,\yt) (\xr, \yb) ++(\SCLblTght,-\SCLblTght) node [anchor=south east] {\scvec{l_0}};

\pgfmathsetmacro{\xl}{0.44993}
\pgfmathsetmacro{\xr}{0.49336}
\pgfmathsetmacro{\yt}{0.32543}
\pgfmathsetmacro{\yb}{0.29549}
%\draw[red, very thin] (\xl,\yb) rectangle (\xr,\yt);
\fill (\xl,\yb) rectangle (\xr,\yt);

\pgfmathsetmacro{\xl}{0.46754}
\pgfmathsetmacro{\xr}{0.50979}
\pgfmathsetmacro{\yt}{0.39891}
\pgfmathsetmacro{\yb}{0.37578}
%\draw[red, very thin] (\xl,\yb) rectangle (\xr,\yt);
\fill (\xl,\yb) rectangle (\xr,\yt);

\pgfmathsetmacro{\xl}{0.45463}
\pgfmathsetmacro{\xr}{0.51214}
\pgfmathsetmacro{\yt}{0.38530}
\pgfmathsetmacro{\yb}{0.29413}
%\draw[red, very thin] (\xl,\yb) rectangle (\xr,\yt);
\fill (\xl,\yb) rectangle (\xr,\yt);

\pgfmathsetmacro{\xl}{0.35018}
\pgfmathsetmacro{\xr}{0.40768}
\pgfmathsetmacro{\yt}{0.49825}
\pgfmathsetmacro{\yb}{0.40980}
%\draw[red, very thin] (\xl,\yb) rectangle (\xr,\yt);
\fill (\xl,\yb) rectangle (\xr,\yt) (\xr, \yb) ++(\SCLblTght,-\SCLblTght) node [anchor=south east] {\scFv{}};

\end{scope}
\end{tikzpicture}
