\begin{tikzpicture}[fill=white,
                    every node/.style={
                    anchor=center,
                    align=left,
                     text=black
%                     text=red
                     }]
%\renewcommand{\baselinestretch}{0.7}

\node[anchor=south west,inner sep=0] (image) at (0,0) {\includegraphics[viewport={53.3mm 196.4mm 98.1mm 276.6mm},clip,width=0.25\textwidth]{images/pdf/7_1}};
\begin{scope}[x={(image.south east)},y={(image.north west)}]
%\draw[help lines,xstep=.1,ystep=.1] (0,0) grid (1,1);
%\foreach \x in {0,1,...,9} { \node [anchor=north] at (\x/10,0) {0.\x}; \node [anchor=south] at (\x/10,1) {0.\x}; }
%\foreach \y in {0,1,...,9} { \node [anchor=east] at (0,\y/10) {0.\y}; \node [anchor=west] at (1,\y/10) {0.\y}; }

\newcommand{\SCCenter}{(\xl/2 + \xr/2, \yb/2 + \yt/2)}

\pgfmathsetmacro{\xl}{0.14098}
\pgfmathsetmacro{\xr}{0.22952}
\pgfmathsetmacro{\yt}{0.99502}
\pgfmathsetmacro{\yb}{0.94526}
%\draw[red, very thin] (\xl,\yb) rectangle (\xr,\yt);
\fill (\xl,\yb) rectangle (\xr,\yt) (\xr, \yb) ++(\SCLblTght,-\SCLblTght) node [anchor=south east] {\scwv{}};

\pgfmathsetmacro{\xl}{0.36347}
\pgfmathsetmacro{\xr}{0.44369}
\pgfmathsetmacro{\yt}{0.94948}
\pgfmathsetmacro{\yb}{0.90309}
%\draw[red, very thin] (\xl,\yb) rectangle (\xr,\yt);
\fill (\xl,\yb) rectangle (\xr,\yt) (\xl, \yt/2 + \yb/2) ++(-\SCLblTght,0pt) node [anchor=west] {$\phi$};

\pgfmathsetmacro{\xl}{0.89926}
\pgfmathsetmacro{\xr}{0.98780}
\pgfmathsetmacro{\yt}{0.76054}
\pgfmathsetmacro{\yb}{0.71964}
%\draw[red, very thin] (\xl,\yb) rectangle (\xr,\yt);
\fill (\xl,\yb) rectangle (\xr,\yt) (\xl, \yt/2 + \yb/2) ++(-\SCLblTght,0pt) node [anchor=west] {$D$};

\pgfmathsetmacro{\xl}{0.11657}
\pgfmathsetmacro{\xr}{0.22631}
\pgfmathsetmacro{\yt}{0.55348}
\pgfmathsetmacro{\yb}{0.51341}
%\draw[red, very thin] (\xl,\yb) rectangle (\xr,\yt);
\fill (\xl,\yb) rectangle (\xr,\yt) (\xr, \yt/2 + \yb/2) ++(\SCLblTght,0pt) node [anchor=east] {$N$};

\pgfmathsetmacro{\xl}{0.59901}
\pgfmathsetmacro{\xr}{0.72483}
\pgfmathsetmacro{\yt}{0.55664}
\pgfmathsetmacro{\yb}{0.51025}
%\draw[red, very thin] (\xl,\yb) rectangle (\xr,\yt);
\fill (\xl,\yb) rectangle (\xr,\yt) (\xl, \yt/2 + \yb/2) ++(-\SCLblTght,0pt) node [anchor=west] {$M$};

\pgfmathsetmacro{\xl}{0.32563}
\pgfmathsetmacro{\xr}{0.37955}
\pgfmathsetmacro{\yt}{0.49444}
\pgfmathsetmacro{\yb}{0.46228}
%\draw[red, very thin] (\xl,\yb) rectangle (\xr,\yt);
\fill (\xl,\yb) rectangle (\xr,\yt) (\xl, \yb) ++(-\SCLblTght,-\SCLblTght) node [anchor=south west] {$\alpha$};

\pgfmathsetmacro{\xl}{0.12225}
\pgfmathsetmacro{\xr}{0.22820}
\pgfmathsetmacro{\yt}{0.35421}
\pgfmathsetmacro{\yb}{0.30624}
%\draw[red, very thin] (\xl,\yb) rectangle (\xr,\yt);
\fill (\xl,\yb) rectangle (\xr,\yt) (\xr, \yt) ++(\SCLblTght,\SCLblTght) node [anchor=north east] {$O$};

\pgfmathsetmacro{\xl}{0.58861}
\pgfmathsetmacro{\xr}{0.70874}
\pgfmathsetmacro{\yt}{0.35316}
\pgfmathsetmacro{\yb}{0.28990}
%\draw[red, very thin] (\xl,\yb) rectangle (\xr,\yt);
\fill (\xl,\yb) rectangle (\xr,\yt) (\xl, \yt/2 + \yb/2) ++(-\SCLblTght,0pt) node [anchor=west] {\scGv{}};

\end{scope}
\end{tikzpicture}
