\begin{tikzpicture}[fill=white,
                    every node/.style={
                    anchor=center,
                    align=left,
                     text=black
%                     text=red
                     }]
%\renewcommand{\baselinestretch}{0.7}

\node[anchor=south west,inner sep=0] (image) at (0,0) {\includegraphics[viewport={27.4mm 142.1mm 164.7mm 231.8mm},clip,width=0.6\textwidth]{images/pdf/7_20}};
\begin{scope}[x={(image.south east)},y={(image.north west)}]
%\draw[help lines,xstep=.1,ystep=.1] (0,0) grid (1,1);
%\foreach \x in {0,1,...,9} { \node [anchor=north] at (\x/10,0) {0.\x}; \node [anchor=south] at (\x/10,1) {0.\x}; }
%\foreach \y in {0,1,...,9} { \node [anchor=east] at (0,\y/10) {0.\y}; \node [anchor=west] at (1,\y/10) {0.\y}; }

\newcommand{\SCCenter}{(\xl/2 + \xr/2, \yb/2 + \yt/2)}

\pgfmathsetmacro{\xl}{0.96502}
\pgfmathsetmacro{\xr}{0.98351}
\pgfmathsetmacro{\yt}{0.41093}
\pgfmathsetmacro{\yb}{0.36666}
%\draw[red, very thin] (\xl,\yb) rectangle (\xr,\yt);
\fill (\xl,\yb) rectangle (\xr,\yt) (\xl/2 + \xr/2, \yb) ++(0pt,-\SCLblTght) node [anchor=south] {1};

\pgfmathsetmacro{\xl}{0.91400}
\pgfmathsetmacro{\xr}{0.93422}
\pgfmathsetmacro{\yt}{0.83056}
\pgfmathsetmacro{\yb}{0.78561}
%\draw[red, very thin] (\xl,\yb) rectangle (\xr,\yt);
\fill (\xl,\yb) rectangle (\xr,\yt) (\xl/2 + \xr/2, \yb) ++(0pt,-\SCLblTght) node [anchor=south] {2};

\pgfmathsetmacro{\xl}{0.63804}
\pgfmathsetmacro{\xr}{0.65777}
\pgfmathsetmacro{\yt}{0.99789}
\pgfmathsetmacro{\yb}{0.95030}
%\draw[red, very thin] (\xl,\yb) rectangle (\xr,\yt);
\fill (\xl,\yb) rectangle (\xr,\yt) (\xl/2 + \xr/2, \yb) ++(0pt,-\SCLblTght) node [anchor=south] {3};

\pgfmathsetmacro{\xl}{0.33521}
\pgfmathsetmacro{\xr}{0.35671}
\pgfmathsetmacro{\yt}{0.48358}
\pgfmathsetmacro{\yb}{0.44460}
%\draw[red, very thin] (\xl,\yb) rectangle (\xr,\yt);
\fill (\xl,\yb) rectangle (\xr,\yt) (\xl/2 + \xr/2, \yb) ++(0pt,-\SCLblTght) node [anchor=south] {4};

\pgfmathsetmacro{\xl}{0.20426}
\pgfmathsetmacro{\xr}{0.24002}
\pgfmathsetmacro{\yt}{0.77201}
\pgfmathsetmacro{\yb}{0.73046}
%\draw[red, very thin] (\xl,\yb) rectangle (\xr,\yt);
\fill (\xl,\yb) rectangle (\xr,\yt) (\xr, \yt/2 + \yb/2) ++(\SCLblTght,0pt) node [anchor=east] {$\sfrac{1}{3}l$};

\pgfmathsetmacro{\xl}{0.20254}
\pgfmathsetmacro{\xr}{0.23977}
\pgfmathsetmacro{\yt}{0.62545}
\pgfmathsetmacro{\yb}{0.52724}
%\draw[red, very thin] (\xl,\yb) rectangle (\xr,\yt);
\fill (\xl,\yb) rectangle (\xr,\yt) (\xr, \yt/2 + \yb/2) ++(\SCLblTght,0pt) node [anchor=east] {$\frac{2}{3}l$};

\pgfmathsetmacro{\xl}{0.85457}
\pgfmathsetmacro{\xr}{0.87947}
\pgfmathsetmacro{\yt}{0.21675}
\pgfmathsetmacro{\yb}{0.17633}
%\draw[red, very thin] (\xl,\yb) rectangle (\xr,\yt);
\fill (\xl,\yb) rectangle (\xr,\yt) (\xr, \yb) ++(\SCLblTght+2pt,-\SCLblTght) node [anchor=south east] {$O$};

\pgfmathsetmacro{\xl}{0.84756}
\pgfmathsetmacro{\xr}{0.87380}
\pgfmathsetmacro{\yt}{0.04118}
\pgfmathsetmacro{\yb}{0.01308}
%\draw[red, very thin] (\xl,\yb) rectangle (\xr,\yt);
\fill (\xl,\yb) rectangle (\xr,\yt) (\xr, \yt/2 + \yb/2) ++(\SCLblTght,0pt) node [anchor=east] {\SCFAX{}};

\end{scope}
\end{tikzpicture}
