% рис. 37 из Яблонского

\begin{tikzpicture}
\pgfmathdeclarefunction{react}{0}{%
    \pgfmathparse{1/abs(x^2-1)}%
}

\begin{axis}[
no markers,
ymin=0,
ymax=4,
domain=0:3, samples=\SCPlotResolution,
%axis lines*=middle,
axis y line=left,
axis x line=bottom,
xlabel=\scpk{},
ylabel=\sceta{},
every axis x label/.style={at=(current axis.right of origin),anchor=north},
every axis y label/.style={at=(current axis.above origin),anchor=east},
every inner x axis line/.style={AxisLines},
every inner y axis line/.style={AxisLines},
height=5cm, width=\SCImageWidth,
xtick={0,1,2},
ytick={1,2,3},%\empty,
enlargelimits=false,
clip=true,% NB: график улетает в бесконечность, так что без обрезания не обойтись
axis on top,
%xmajorgrids
grid=major
]
\addplot [PlotLine, red] {react};

\draw[fill] (axis cs:0,0) circle [radius=1.5pt];

\end{axis}

\end{tikzpicture}
